[gd_resource type="Animation" format=3 uid="uid://csdt7uf2codic"]

[resource]
resource_name = "Happy"
loop_mode = 1
tracks/0/type = "position_3d"
tracks/0/imported = true
tracks/0/enabled = true
tracks/0/path = NodePath("CharacterArmature/Skeleton3D:Foot.L")
tracks/0/interp = 1
tracks/0/loop_wrap = true
tracks/0/keys = PackedFloat32Array(0, 1, 0.378795, 0.0755861, 0.0905007)
tracks/1/type = "rotation_3d"
tracks/1/imported = true
tracks/1/enabled = true
tracks/1/path = NodePath("CharacterArmature/Skeleton3D:Foot.L")
tracks/1/interp = 1
tracks/1/loop_wrap = true
tracks/1/keys = PackedFloat32Array(0, 1, 1.16934e-05, 0.705806, 0.708405, 1.2001e-05)
tracks/2/type = "position_3d"
tracks/2/imported = true
tracks/2/enabled = true
tracks/2/path = NodePath("CharacterArmature/Skeleton3D:Body")
tracks/2/interp = 1
tracks/2/loop_wrap = true
tracks/2/keys = PackedFloat32Array(0, 1, -0.044898, 0.515161, 0.0882487, 0.0333333, 1, -0.0430114, 0.512672, 0.0882487, 0.0666667, 1, -0.0371163, 0.50531, 0.0882487, 0.1, 1, -0.0273394, 0.494093, 0.0882487, 0.133333, 1, -0.0147251, 0.48137, 0.0882487, 0.166667, 1, -0.00105767, 0.470153, 0.0882487, 0.2, 1, 0.011924, 0.462791, 0.0882487, 0.233333, 1, 0.0231397, 0.460303, 0.0882487, 0.266667, 1, 0.0344703, 0.462497, 0.0882487, 0.3, 1, 0.0479086, 0.469046, 0.0882487, 0.333333, 1, 0.0626726, 0.479356, 0.0882487, 0.366667, 1, 0.0773844, 0.491916, 0.0882486, 0.4, 1, 0.0903425, 0.504476, 0.0882486, 0.433333, 1, 0.100112, 0.514787, 0.0882486, 0.466667, 1, 0.105961, 0.521336, 0.0882486, 0.533333, 1, 0.105961, 0.521336, 0.0882487, 0.566667, 1, 0.100112, 0.514787, 0.0882487, 0.6, 1, 0.0903425, 0.504476, 0.0882487, 0.633333, 1, 0.0773844, 0.491916, 0.0882487, 0.666667, 1, 0.0626726, 0.479357, 0.0882487, 0.7, 1, 0.0479086, 0.469046, 0.0882488, 0.733333, 1, 0.0344703, 0.462497, 0.0882488, 0.766667, 1, 0.0231397, 0.460303, 0.0882487, 0.8, 1, 0.011924, 0.462791, 0.0882487, 0.833333, 1, -0.00105768, 0.470153, 0.0882487, 0.866667, 1, -0.0147251, 0.48137, 0.0882487, 0.9, 1, -0.0273394, 0.494093, 0.0882487, 0.933333, 1, -0.0371163, 0.50531, 0.0882487, 0.966667, 1, -0.0430114, 0.512672, 0.0882487, 1, 1, -0.044898, 0.515161, 0.0882487)
tracks/3/type = "rotation_3d"
tracks/3/imported = true
tracks/3/enabled = true
tracks/3/path = NodePath("CharacterArmature/Skeleton3D:Body")
tracks/3/interp = 1
tracks/3/loop_wrap = true
tracks/3/keys = PackedFloat32Array(0, 1, -7.07197e-08, 1.02426e-07, 0.118648, 0.992936, 0.0333333, 1, -7.10844e-08, 1.0246e-07, 0.115836, 0.993268, 0.0666667, 1, -7.22217e-08, 1.02561e-07, 0.107032, 0.994256, 0.1, 1, -7.41003e-08, 1.02712e-07, 0.0923741, 0.995724, 0.133333, 1, -7.6508e-08, 1.02873e-07, 0.0733716, 0.997305, 0.166667, 1, -7.90931e-08, 1.03006e-07, 0.0526889, 0.998611, 0.2, 1, -8.15228e-08, 1.03092e-07, 0.0329772, 0.999456, 0.233333, 1, -2.88574e-08, 1.03134e-07, 0.0159121, 0.999873, 0.266667, 1, -3.09208e-08, 1.03146e-07, -0.0013445, 0.999999, 0.3, 1, -3.33562e-08, 1.0312e-07, -0.0218118, 0.999762, 0.366667, 1, -3.8639e-08, 1.02912e-07, -0.0665867, 0.997781, 0.4, 1, -4.09296e-08, 1.02756e-07, -0.0861657, 0.996281, 0.433333, 1, -4.26413e-08, 1.02613e-07, -0.100864, 0.9949, 0.466667, 1, -4.36595e-08, 1.02516e-07, -0.109634, 0.993972, 0.533333, 1, 2.41281e-08, 1.33019e-07, -0.109634, 0.993972, 0.566667, 1, 2.52069e-08, 1.33143e-07, -0.100864, 0.9949, 0.6, 1, 2.70082e-08, 1.33327e-07, -0.0861657, 0.996281, 0.633333, 1, 2.9395e-08, 1.33526e-07, -0.0665867, 0.997781, 0.7, 1, 3.47992e-08, 1.33788e-07, -0.0218118, 0.999762, 0.733333, 1, 3.72446e-08, 1.33819e-07, -0.00134451, 0.999999, 0.766667, 1, -2.88574e-08, 1.03134e-07, 0.0159121, 0.999873, 0.8, 1, -2.68079e-08, 1.03092e-07, 0.0329772, 0.999456, 0.833333, 1, -2.44294e-08, 1.03006e-07, 0.052689, 0.998611, 0.866667, 1, -2.19208e-08, 1.02873e-07, 0.0733716, 0.997305, 0.9, 1, -1.96043e-08, 1.02712e-07, 0.0923741, 0.995724, 0.933333, 1, -1.78097e-08, 1.02561e-07, 0.107032, 0.994256, 0.966667, 1, -1.67286e-08, 1.0246e-07, 0.115836, 0.993268, 1, 1, -7.07197e-08, 1.02426e-07, 0.118648, 0.992936)
tracks/4/type = "rotation_3d"
tracks/4/imported = true
tracks/4/enabled = true
tracks/4/path = NodePath("CharacterArmature/Skeleton3D:Abdomen")
tracks/4/interp = 1
tracks/4/loop_wrap = true
tracks/4/keys = PackedFloat32Array(0, 1, 0.0863425, 0.00135166, -5.47081e-05, 0.996265, 0.0333333, 1, 0.0901038, 0.00123164, -4.98383e-05, 0.995932, 0.0666667, 1, 0.100694, 0.000893424, -3.6136e-05, 0.994917, 0.1, 1, 0.114276, 0.000458946, -1.85161e-05, 0.993449, 0.133333, 1, 0.124838, 0.000120552, -4.79013e-06, 0.992177, 0.2, 1, 0.124838, 0.000120553, -4.79007e-06, 0.992177, 0.233333, 1, 0.114276, 0.000458947, -1.85134e-05, 0.993449, 0.266667, 1, 0.100694, 0.000893423, -3.61298e-05, 0.994917, 0.3, 1, 0.0901038, 0.00123164, -4.98439e-05, 0.995932, 0.333333, 1, 0.0863425, 0.00135166, -5.471e-05, 0.996265, 0.366667, 1, 0.0889565, 0.00126826, -5.13336e-05, 0.996035, 0.4, 1, 0.096562, 0.00102544, -4.14812e-05, 0.995327, 0.466667, 1, 0.1184, 0.000326882, -1.31536e-05, 0.992966, 0.5, 1, 0.125981, 8.39039e-05, -3.29793e-06, 0.992033, 0.533333, 1, 0.128584, 4.3663e-07, 9.58862e-08, 0.991699, 0.566667, 1, 0.122756, 0.000187308, -7.49642e-06, 0.992437, 0.633333, 1, 0.0921937, 0.00116493, -4.71351e-05, 0.99574, 0.666667, 1, 0.0863425, 0.00135166, -5.47051e-05, 0.996265, 0.7, 1, 0.0901038, 0.00123164, -4.98446e-05, 0.995932, 0.733333, 1, 0.100694, 0.000893423, -3.61297e-05, 0.994917, 0.766667, 1, 0.114276, 0.000458947, -1.85134e-05, 0.993449, 0.8, 1, 0.124838, 0.000120553, -4.78838e-06, 0.992177, 0.866667, 1, 0.124838, 0.000120551, -4.79049e-06, 0.992177, 0.9, 1, 0.114276, 0.000458947, -1.85127e-05, 0.993449, 0.933333, 1, 0.100694, 0.000893423, -3.61363e-05, 0.994917, 0.966667, 1, 0.0901039, 0.00123164, -4.9846e-05, 0.995932, 1, 1, 0.0863425, 0.00135166, -5.47081e-05, 0.996265)
tracks/5/type = "rotation_3d"
tracks/5/imported = true
tracks/5/enabled = true
tracks/5/path = NodePath("CharacterArmature/Skeleton3D:Torso")
tracks/5/interp = 1
tracks/5/loop_wrap = true
tracks/5/keys = PackedFloat32Array(0, 1, -0.0328065, 0.00185889, -0.000369699, 0.99946, 0.0333333, 1, -0.027514, 0.00169383, -0.000336893, 0.99962, 0.0666667, 1, -0.0125967, 0.00122845, -0.00024437, 0.99992, 0.1, 1, 0.00656593, 0.000630355, -0.000125472, 0.999978, 0.133333, 1, 0.0214848, 0.000164501, -3.28636e-05, 0.999769, 0.166667, 1, 0.0267781, -8.31945e-07, 7.823e-09, 0.999641, 0.2, 1, 0.024077, 8.35358e-05, -1.6767e-05, 0.99971, 0.233333, 1, 0.016083, 0.000333197, -6.63997e-05, 0.999871, 0.266667, 1, 0.00389699, 0.000713673, -0.000142034, 0.999992, 0.3, 1, -0.00992794, 0.00114517, -0.000227811, 0.99995, 0.333333, 1, -0.022113, 0.00152535, -0.00030339, 0.999754, 0.366667, 1, -0.0301059, 0.00177467, -0.000352944, 0.999545, 0.4, 1, -0.0328065, 0.00185889, -0.000369691, 0.99946, 0.433333, 1, -0.0245721, 0.00160206, -0.000318636, 0.999697, 0.466667, 1, -0.00301555, 0.000929442, -0.000184938, 0.999995, 0.5, 1, 0.0185424, 0.000256391, -5.11259e-05, 0.999828, 0.533333, 1, 0.0267781, -8.30637e-07, 1.33293e-08, 0.999641, 0.566667, 1, 0.024077, 8.3537e-05, -1.6769e-05, 0.99971, 0.6, 1, 0.016083, 0.000333197, -6.63972e-05, 0.999871, 0.633333, 1, 0.003897, 0.000713673, -0.00014203, 0.999992, 0.666667, 1, -0.00992793, 0.00114517, -0.000227811, 0.99995, 0.7, 1, -0.022113, 0.00152535, -0.00030339, 0.999754, 0.733333, 1, -0.0301059, 0.00177467, -0.000352953, 0.999545, 0.766667, 1, -0.0328065, 0.00185889, -0.000369699, 0.99946, 0.8, 1, -0.00301555, 0.000929445, -0.000184925, 0.999995, 0.833333, 1, 0.0267781, -8.30749e-07, 1.33515e-08, 0.999641, 0.866667, 1, 0.0214848, 0.000164499, -3.28638e-05, 0.999769, 0.9, 1, 0.00656594, 0.000630353, -0.000125479, 0.999978, 0.933333, 1, -0.0125967, 0.00122845, -0.00024437, 0.99992, 0.966667, 1, -0.027514, 0.00169383, -0.000336893, 0.99962, 1, 1, -0.0328065, 0.00185889, -0.000369699, 0.99946)
tracks/6/type = "rotation_3d"
tracks/6/imported = true
tracks/6/enabled = true
tracks/6/path = NodePath("CharacterArmature/Skeleton3D:Neck")
tracks/6/interp = 1
tracks/6/loop_wrap = true
tracks/6/keys = PackedFloat32Array(0, 1, 0.192222, 1.01828e-06, 7.81813e-08, 0.981351)
tracks/7/type = "rotation_3d"
tracks/7/imported = true
tracks/7/enabled = true
tracks/7/path = NodePath("CharacterArmature/Skeleton3D:Head")
tracks/7/interp = 1
tracks/7/loop_wrap = true
tracks/7/keys = PackedFloat32Array(0, 1, -0.24065, -0.000267724, 6.60197e-05, 0.970612)
tracks/8/type = "position_3d"
tracks/8/imported = true
tracks/8/enabled = true
tracks/8/path = NodePath("CharacterArmature/Skeleton3D:Face")
tracks/8/interp = 1
tracks/8/loop_wrap = true
tracks/8/keys = PackedFloat32Array(0, 1, 0.00045864, 0.260434, 0.410346)
tracks/9/type = "rotation_3d"
tracks/9/imported = true
tracks/9/enabled = true
tracks/9/path = NodePath("CharacterArmature/Skeleton3D:Face")
tracks/9/interp = 1
tracks/9/loop_wrap = true
tracks/9/keys = PackedFloat32Array(0, 1, -0.226356, -7.1064e-07, -1.58312e-07, 0.974045)
tracks/10/type = "position_3d"
tracks/10/imported = true
tracks/10/enabled = true
tracks/10/path = NodePath("CharacterArmature/Skeleton3D:Shoulder.L")
tracks/10/interp = 1
tracks/10/loop_wrap = true
tracks/10/keys = PackedFloat32Array(0, 1, 0.346833, 0.0394686, 0.19234)
tracks/11/type = "rotation_3d"
tracks/11/imported = true
tracks/11/enabled = true
tracks/11/path = NodePath("CharacterArmature/Skeleton3D:Shoulder.L")
tracks/11/interp = 1
tracks/11/loop_wrap = true
tracks/11/keys = PackedFloat32Array(0, 1, -0.807781, -0.496311, 0.0479618, 0.314428)
tracks/12/type = "rotation_3d"
tracks/12/imported = true
tracks/12/enabled = true
tracks/12/path = NodePath("CharacterArmature/Skeleton3D:UpperArm.L")
tracks/12/interp = 1
tracks/12/loop_wrap = true
tracks/12/keys = PackedFloat32Array(0, 1, -0.413413, -0.505592, -0.477726, 0.587575)
tracks/13/type = "rotation_3d"
tracks/13/imported = true
tracks/13/enabled = true
tracks/13/path = NodePath("CharacterArmature/Skeleton3D:LowerArm.L")
tracks/13/interp = 1
tracks/13/loop_wrap = true
tracks/13/keys = PackedFloat32Array(0, 1, -0.0272623, 0.218845, -0.215376, 0.951303)
tracks/14/type = "rotation_3d"
tracks/14/imported = true
tracks/14/enabled = true
tracks/14/path = NodePath("CharacterArmature/Skeleton3D:Pinky3.L")
tracks/14/interp = 1
tracks/14/loop_wrap = true
tracks/14/keys = PackedFloat32Array(0, 1, -0.0443261, -0.0274804, -0.0696912, 0.996204)
tracks/15/type = "position_3d"
tracks/15/imported = true
tracks/15/enabled = true
tracks/15/path = NodePath("CharacterArmature/Skeleton3D:Shoulder.R")
tracks/15/interp = 1
tracks/15/loop_wrap = true
tracks/15/keys = PackedFloat32Array(0, 1, -0.34616, 0.0394686, 0.19234)
tracks/16/type = "rotation_3d"
tracks/16/imported = true
tracks/16/enabled = true
tracks/16/path = NodePath("CharacterArmature/Skeleton3D:Shoulder.R")
tracks/16/interp = 1
tracks/16/loop_wrap = true
tracks/16/keys = PackedFloat32Array(0, 1, -0.807781, 0.496311, -0.0479612, 0.314428)
tracks/17/type = "rotation_3d"
tracks/17/imported = true
tracks/17/enabled = true
tracks/17/path = NodePath("CharacterArmature/Skeleton3D:UpperArm.R")
tracks/17/interp = 1
tracks/17/loop_wrap = true
tracks/17/keys = PackedFloat32Array(0, 1, -0.413413, 0.505592, 0.477726, 0.587575)
tracks/18/type = "rotation_3d"
tracks/18/imported = true
tracks/18/enabled = true
tracks/18/path = NodePath("CharacterArmature/Skeleton3D:LowerArm.R")
tracks/18/interp = 1
tracks/18/loop_wrap = true
tracks/18/keys = PackedFloat32Array(0, 1, -0.0450495, -0.257182, 0.173112, 0.949663)
tracks/19/type = "position_3d"
tracks/19/imported = true
tracks/19/enabled = true
tracks/19/path = NodePath("CharacterArmature/Skeleton3D:Foot.R")
tracks/19/interp = 1
tracks/19/loop_wrap = true
tracks/19/keys = PackedFloat32Array(0, 1, -0.377413, 0.0755862, 0.0905003)
tracks/20/type = "rotation_3d"
tracks/20/imported = true
tracks/20/enabled = true
tracks/20/path = NodePath("CharacterArmature/Skeleton3D:Foot.R")
tracks/20/interp = 1
tracks/20/loop_wrap = true
tracks/20/keys = PackedFloat32Array(0, 1, 1.20591e-05, -0.705806, -0.708405, 1.16644e-05)
tracks/21/type = "rotation_3d"
tracks/21/imported = true
tracks/21/enabled = true
tracks/21/path = NodePath("CharacterArmature/Skeleton3D:Thumb2.L")
tracks/21/interp = 1
tracks/21/loop_wrap = true
tracks/21/keys = PackedFloat32Array(0, 1, 0.0494149, -0.591702, 0.0222427, 0.804334)
tracks/22/type = "rotation_3d"
tracks/22/imported = true
tracks/22/enabled = true
tracks/22/path = NodePath("CharacterArmature/Skeleton3D:Pinky2.R")
tracks/22/interp = 1
tracks/22/loop_wrap = true
tracks/22/keys = PackedFloat32Array(0, 1, 0.0683286, 0.0838638, 0.0889255, 0.990147)
tracks/23/type = "rotation_3d"
tracks/23/imported = true
tracks/23/enabled = true
tracks/23/path = NodePath("CharacterArmature/Skeleton3D:Pinky3.R")
tracks/23/interp = 1
tracks/23/loop_wrap = true
tracks/23/keys = PackedFloat32Array(0, 1, -0.0443261, 0.0274804, 0.0696913, 0.996204)
tracks/24/type = "rotation_3d"
tracks/24/imported = true
tracks/24/enabled = true
tracks/24/path = NodePath("CharacterArmature/Skeleton3D:Middle2.R")
tracks/24/interp = 1
tracks/24/loop_wrap = true
tracks/24/keys = PackedFloat32Array(0, 1, 0.0287668, -0.958988, -0.0516367, 0.277214)
tracks/25/type = "rotation_3d"
tracks/25/imported = true
tracks/25/enabled = true
tracks/25/path = NodePath("CharacterArmature/Skeleton3D:Middle3.R")
tracks/25/interp = 1
tracks/25/loop_wrap = true
tracks/25/keys = PackedFloat32Array(0, 1, -0.0490525, 0.957024, 0.00343769, 0.285809)
tracks/26/type = "rotation_3d"
tracks/26/imported = true
tracks/26/enabled = true
tracks/26/path = NodePath("CharacterArmature/Skeleton3D:Index2.R")
tracks/26/interp = 1
tracks/26/loop_wrap = true
tracks/26/keys = PackedFloat32Array(0, 1, -0.0360648, 0.173438, -0.171589, 0.969111)
tracks/27/type = "rotation_3d"
tracks/27/imported = true
tracks/27/enabled = true
tracks/27/path = NodePath("CharacterArmature/Skeleton3D:Index3.R")
tracks/27/interp = 1
tracks/27/loop_wrap = true
tracks/27/keys = PackedFloat32Array(0, 1, -0.0977596, -0.00365195, 0.0314475, 0.994706)
tracks/28/type = "rotation_3d"
tracks/28/imported = true
tracks/28/enabled = true
tracks/28/path = NodePath("CharacterArmature/Skeleton3D:Thumb2.R")
tracks/28/interp = 1
tracks/28/loop_wrap = true
tracks/28/keys = PackedFloat32Array(0, 1, 0.0494148, 0.591702, -0.0222427, 0.804334)
tracks/29/type = "rotation_3d"
tracks/29/imported = true
tracks/29/enabled = true
tracks/29/path = NodePath("CharacterArmature/Skeleton3D:Pinky1.L")
tracks/29/interp = 1
tracks/29/loop_wrap = true
tracks/29/keys = PackedFloat32Array(0, 1, -0.0282119, 0.0783474, 0.1892, 0.978401)
tracks/30/type = "rotation_3d"
tracks/30/imported = true
tracks/30/enabled = true
tracks/30/path = NodePath("CharacterArmature/Skeleton3D:Middle1.L")
tracks/30/interp = 1
tracks/30/loop_wrap = true
tracks/30/keys = PackedFloat32Array(0, 1, -0.00104054, 0.00359538, -0.0413494, 0.999138)
tracks/31/type = "rotation_3d"
tracks/31/imported = true
tracks/31/enabled = true
tracks/31/path = NodePath("CharacterArmature/Skeleton3D:Index1.L")
tracks/31/interp = 1
tracks/31/loop_wrap = true
tracks/31/keys = PackedFloat32Array(0, 1, 0.0772995, 0.166877, -0.28043, 0.942091)
tracks/32/type = "rotation_3d"
tracks/32/imported = true
tracks/32/enabled = true
tracks/32/path = NodePath("CharacterArmature/Skeleton3D:Thumb1.L")
tracks/32/interp = 1
tracks/32/loop_wrap = true
tracks/32/keys = PackedFloat32Array(0, 1, 0.221006, 0.549587, -0.472044, 0.652905)
tracks/33/type = "rotation_3d"
tracks/33/imported = true
tracks/33/enabled = true
tracks/33/path = NodePath("CharacterArmature/Skeleton3D:Pinky1.R")
tracks/33/interp = 1
tracks/33/loop_wrap = true
tracks/33/keys = PackedFloat32Array(0, 1, -0.0282119, -0.0783474, -0.1892, 0.978401)
tracks/34/type = "rotation_3d"
tracks/34/imported = true
tracks/34/enabled = true
tracks/34/path = NodePath("CharacterArmature/Skeleton3D:Middle1.R")
tracks/34/interp = 1
tracks/34/loop_wrap = true
tracks/34/keys = PackedFloat32Array(0, 1, -0.00104057, -0.00359537, 0.0413494, 0.999138)
tracks/35/type = "rotation_3d"
tracks/35/imported = true
tracks/35/enabled = true
tracks/35/path = NodePath("CharacterArmature/Skeleton3D:Index1.R")
tracks/35/interp = 1
tracks/35/loop_wrap = true
tracks/35/keys = PackedFloat32Array(0, 1, 0.0772995, -0.166877, 0.28043, 0.942091)
tracks/36/type = "rotation_3d"
tracks/36/imported = true
tracks/36/enabled = true
tracks/36/path = NodePath("CharacterArmature/Skeleton3D:Thumb1.R")
tracks/36/interp = 1
tracks/36/loop_wrap = true
tracks/36/keys = PackedFloat32Array(0, 1, 0.221007, -0.549587, 0.472044, 0.652905)
