[gd_resource type="Animation" format=3 uid="uid://bd0unfldsr4u8"]

[resource]
resource_name = "Walk"
loop_mode = 1
tracks/0/type = "position_3d"
tracks/0/imported = true
tracks/0/enabled = true
tracks/0/path = NodePath("CharacterArmature/Skeleton3D:Foot.L")
tracks/0/interp = 1
tracks/0/loop_wrap = true
tracks/0/keys = PackedFloat32Array(0, 1, 0.378795, 0.0755864, -0.174895, 0.0333333, 1, 0.378795, 0.0848302, -0.174654, 0.0666667, 1, 0.378796, 0.112173, -0.172837, 0.1, 1, 0.378797, 0.153823, -0.167276, 0.133333, 1, 0.378798, 0.201045, -0.15561, 0.166667, 1, 0.378799, 0.242645, -0.136376, 0.2, 1, 0.3788, 0.269897, -0.109657, 0.233333, 1, 0.3788, 0.27902, -0.0766314, 0.266667, 1, 0.3788, 0.276272, -0.0312754, 0.3, 1, 0.378799, 0.268005, 0.0328231, 0.333333, 1, 0.378799, 0.254132, 0.112676, 0.4, 1, 0.378798, 0.212848, 0.290814, 0.433333, 1, 0.378797, 0.188929, 0.369158, 0.466667, 1, 0.378796, 0.165547, 0.428608, 0.5, 1, 0.378795, 0.144228, 0.464703, 0.533333, 1, 0.378795, 0.125833, 0.47649, 0.566667, 1, 0.378794, 0.105071, 0.475372, 0.6, 1, 0.378794, 0.0838402, 0.466336, 0.633333, 1, 0.378795, 0.0755858, 0.444514, 0.666667, 1, 0.378795, 0.0752093, 0.409423, 0.7, 1, 0.378795, 0.0749459, 0.358608, 0.733333, 1, 0.378795, 0.0747996, 0.293321, 0.766667, 1, 0.378795, 0.0747667, 0.216545, 0.833333, 1, 0.378795, 0.0749682, 0.0498328, 0.866667, 1, 0.378795, 0.075141, -0.0267035, 0.9, 1, 0.378795, 0.0753146, -0.0904524, 0.933333, 1, 0.378795, 0.075459, -0.137401, 0.966667, 1, 0.378795, 0.0755535, -0.16563, 1, 1, 0.378795, 0.0755864, -0.174895)
tracks/1/type = "rotation_3d"
tracks/1/imported = true
tracks/1/enabled = true
tracks/1/path = NodePath("CharacterArmature/Skeleton3D:Foot.L")
tracks/1/interp = 1
tracks/1/loop_wrap = true
tracks/1/keys = PackedFloat32Array(0, 1, 6.17867e-06, 0.685426, 0.728143, 1.44528e-05, 0.0333333, 1, 6.30605e-06, 0.663714, 0.747987, 1.4383e-05, 0.0666667, 1, 6.66409e-06, 0.593313, 0.804972, 1.40906e-05, 0.1, 1, 7.12649e-06, 0.469749, 0.8828, 1.33777e-05, 0.133333, 1, 7.4765e-06, 0.312486, 0.949922, 1.21835e-05, 0.166667, 1, 7.60677e-06, 0.168722, 0.985664, 1.08634e-05, 0.2, 1, 7.60889e-06, 0.0766215, 0.99706, 9.91897e-06, 0.233333, 1, 7.60465e-06, 0.0464017, 0.998923, 9.60128e-06, 0.266667, 1, 7.70338e-06, 0.0691063, 0.997609, 9.86501e-06, 0.3, 1, 7.99149e-06, 0.140955, 0.990016, 1.06674e-05, 0.333333, 1, 8.40149e-06, 0.266231, 0.963909, 1.19475e-05, 0.366667, 1, 8.74998e-06, 0.43499, 0.900435, 1.34105e-05, 0.4, 1, 8.80899e-06, 0.609521, 0.79277, 1.45345e-05, 0.433333, 1, 8.55805e-06, 0.744777, 0.667314, 1.50121e-05, 0.466667, 1, 8.21716e-06, 0.826058, 0.563585, 1.5024e-05, 0.5, 1, 7.99301e-06, 0.864687, 0.502311, 1.48959e-05, 0.533333, 1, 8.01533e-06, 0.874062, 0.485815, 1.4858e-05, 0.566667, 1, 9.0127e-06, 0.839132, 0.543928, 1.42259e-05, 0.6, 1, 1.09226e-05, 0.75388, 0.657012, 1.27328e-05, 0.633333, 1, 1.16934e-05, 0.705806, 0.708405, 1.2001e-05, 0.666667, 1, 1.15229e-05, 0.70133, 0.712837, 1.21133e-05, 0.7, 1, 1.11697e-05, 0.697318, 0.716761, 1.22956e-05, 0.733333, 1, 1.06433e-05, 0.69386, 0.72011, 1.25433e-05, 0.766667, 1, 9.97201e-06, 0.691027, 0.722829, 1.28446e-05, 0.8, 1, 9.20556e-06, 0.688852, 0.724903, 1.31788e-05, 0.833333, 1, 8.41186e-06, 0.687312, 0.726362, 1.35185e-05, 0.866667, 1, 7.66549e-06, 0.686329, 0.727292, 1.38339e-05, 0.933333, 1, 6.5604e-06, 0.685521, 0.728053, 1.42951e-05, 1, 1, 6.17867e-06, 0.685426, 0.728143, 1.44528e-05)
tracks/2/type = "position_3d"
tracks/2/imported = true
tracks/2/enabled = true
tracks/2/path = NodePath("CharacterArmature/Skeleton3D:Body")
tracks/2/interp = 1
tracks/2/loop_wrap = true
tracks/2/keys = PackedFloat32Array(0, 1, 0.00243718, 0.463144, 0.167753, 0.0333333, 1, 0.00243718, 0.455618, 0.167753, 0.0666667, 1, 0.00243718, 0.439513, 0.167753, 0.1, 1, 0.00243718, 0.431988, 0.167753, 0.133333, 1, 0.00243718, 0.439374, 0.167753, 0.166667, 1, 0.00243718, 0.461226, 0.167753, 0.2, 1, 0.00243718, 0.494521, 0.167753, 0.233333, 1, 0.00243718, 0.532285, 0.167753, 0.266667, 1, 0.00243718, 0.56558, 0.167753, 0.3, 1, 0.00243718, 0.587432, 0.167753, 0.333333, 1, 0.00243718, 0.594818, 0.167753, 0.366667, 1, 0.00243718, 0.588893, 0.167753, 0.4, 1, 0.00243718, 0.570919, 0.167753, 0.433333, 1, 0.00243718, 0.543181, 0.167753, 0.466667, 1, 0.00243718, 0.511759, 0.167753, 0.5, 1, 0.00243718, 0.48366, 0.167753, 0.533333, 1, 0.00243718, 0.463144, 0.167753, 0.566667, 1, 0.00243718, 0.447213, 0.167753, 0.6, 1, 0.00243718, 0.43556, 0.167753, 0.633333, 1, 0.00243718, 0.431988, 0.167753, 0.666667, 1, 0.00243718, 0.446461, 0.167753, 0.7, 1, 0.00243718, 0.48723, 0.167753, 0.733333, 1, 0.00243718, 0.539576, 0.167753, 0.766667, 1, 0.00243718, 0.580345, 0.167753, 0.8, 1, 0.00243718, 0.594818, 0.167753, 0.833333, 1, 0.00243718, 0.586685, 0.167753, 0.866667, 1, 0.00243718, 0.563012, 0.167753, 0.933333, 1, 0.00243718, 0.49495, 0.167753, 0.966667, 1, 0.00243718, 0.471278, 0.167753, 1, 1, 0.00243718, 0.463144, 0.167753)
tracks/3/type = "rotation_3d"
tracks/3/imported = true
tracks/3/enabled = true
tracks/3/path = NodePath("CharacterArmature/Skeleton3D:Body")
tracks/3/interp = 1
tracks/3/loop_wrap = true
tracks/3/keys = PackedFloat32Array(0, 1, -0.000513423, 0.00269969, 2.46358e-05, 0.999996)
tracks/4/type = "rotation_3d"
tracks/4/imported = true
tracks/4/enabled = true
tracks/4/path = NodePath("CharacterArmature/Skeleton3D:Torso")
tracks/4/interp = 1
tracks/4/loop_wrap = true
tracks/4/keys = PackedFloat32Array(0, 1, 0.0292771, -0.0782354, 0.0482399, 0.995337, 0.0333333, 1, 0.029282, -0.0766893, 0.0472865, 0.995503, 0.0666667, 1, 0.0292962, -0.0720134, 0.0444034, 0.995984, 0.1, 1, 0.0293178, -0.0642278, 0.0396028, 0.996718, 0.133333, 1, 0.0293435, -0.0534904, 0.032982, 0.997592, 0.166667, 1, 0.0293689, -0.0401404, 0.0247503, 0.998456, 0.2, 1, 0.0293892, -0.0247267, 0.0152461, 0.999146, 0.233333, 1, 0.0294003, -0.00799992, 0.0049323, 0.999524, 0.266667, 1, 0.0293999, 0.00914406, -0.00563878, 0.99951, 0.3, 1, 0.0293882, 0.0257636, -0.0158865, 0.99911, 0.333333, 1, 0.0293675, 0.0409858, -0.0252726, 0.998408, 0.366667, 1, 0.0293422, 0.0540989, -0.0333582, 0.997547, 0.4, 1, 0.0293169, 0.0645987, -0.0398324, 0.996685, 0.433333, 1, 0.0292957, 0.0721859, -0.0445107, 0.995967, 0.466667, 1, 0.029282, 0.0767322, -0.047314, 0.995498, 0.533333, 1, 0.029282, 0.0767321, -0.047314, 0.995498, 0.566667, 1, 0.0292957, 0.0721858, -0.0445107, 0.995967, 0.6, 1, 0.0293169, 0.0645987, -0.0398324, 0.996685, 0.633333, 1, 0.0293422, 0.0540989, -0.0333582, 0.997547, 0.666667, 1, 0.0293675, 0.0409858, -0.0252726, 0.998408, 0.7, 1, 0.0293882, 0.0257636, -0.0158865, 0.99911, 0.733333, 1, 0.0293999, 0.00914406, -0.00563879, 0.99951, 0.766667, 1, 0.0294003, -0.00799992, 0.00493229, 0.999524, 0.8, 1, 0.0293892, -0.0247267, 0.0152461, 0.999146, 0.833333, 1, 0.0293689, -0.0401404, 0.0247503, 0.998456, 0.866667, 1, 0.0293435, -0.0534904, 0.032982, 0.997592, 0.9, 1, 0.0293178, -0.0642279, 0.0396028, 0.996718, 0.933333, 1, 0.0292962, -0.0720134, 0.0444034, 0.995984, 0.966667, 1, 0.029282, -0.0766893, 0.0472866, 0.995503, 1, 1, 0.0292771, -0.0782354, 0.0482399, 0.995337)
tracks/5/type = "rotation_3d"
tracks/5/imported = true
tracks/5/enabled = true
tracks/5/path = NodePath("CharacterArmature/Skeleton3D:UpperArm.L")
tracks/5/interp = 1
tracks/5/loop_wrap = true
tracks/5/keys = PackedFloat32Array(0, 1, -0.089252, -0.282467, -0.700253, 0.649532, 0.0333333, 1, -0.0877139, -0.286841, -0.700632, 0.647413, 0.0666667, 1, -0.0844247, -0.296147, -0.70138, 0.642834, 0.1, 1, -0.0828887, -0.300471, -0.7017, 0.640675, 0.133333, 1, -0.0849887, -0.294556, -0.701258, 0.643624, 0.166667, 1, -0.091328, -0.276542, -0.699711, 0.652371, 0.2, 1, -0.101727, -0.246471, -0.696471, 0.666207, 0.233333, 1, -0.115531, -0.205514, -0.690774, 0.683556, 0.266667, 1, -0.131496, -0.156592, -0.682092, 0.702096, 0.3, 1, -0.147908, -0.10444, -0.67066, 0.719327, 0.333333, 1, -0.162992, -0.0546953, -0.657714, 0.733386, 0.366667, 1, -0.175382, -0.0124166, -0.645167, 0.743537, 0.4, 1, -0.184335, 0.019005, -0.634927, 0.750018, 0.433333, 1, -0.189638, 0.0379872, -0.628364, 0.753494, 0.466667, 1, -0.191369, 0.0442468, -0.626137, 0.754568, 0.5, 1, -0.1906, 0.0414632, -0.627131, 0.754095, 0.533333, 1, -0.188259, 0.0330256, -0.630107, 0.752617, 0.566667, 1, -0.184303, 0.0188937, -0.634965, 0.749997, 0.6, 1, -0.178721, -0.000786362, -0.641467, 0.746041, 0.633333, 1, -0.171565, -0.0255871, -0.649227, 0.740551, 0.666667, 1, -0.162987, -0.0547147, -0.657719, 0.73338, 0.7, 1, -0.153267, -0.0869752, -0.66634, 0.724524, 0.766667, 1, -0.132156, -0.154532, -0.681683, 0.702825, 0.8, 1, -0.12184, -0.186386, -0.687619, 0.691083, 0.833333, 1, -0.112395, -0.214923, -0.692211, 0.67972, 0.866667, 1, -0.104257, -0.239052, -0.695548, 0.669476, 0.9, 1, -0.0977359, -0.258088, -0.697819, 0.660974, 0.933333, 1, -0.0930184, -0.271698, -0.699244, 0.654664, 0.966667, 1, -0.0901879, -0.279799, -0.700013, 0.650815, 1, 1, -0.089252, -0.282467, -0.700253, 0.649532)
tracks/6/type = "rotation_3d"
tracks/6/imported = true
tracks/6/enabled = true
tracks/6/path = NodePath("CharacterArmature/Skeleton3D:LowerArm.L")
tracks/6/interp = 1
tracks/6/loop_wrap = true
tracks/6/keys = PackedFloat32Array(0, 1, 0.0279461, -0.439475, -0.116585, 0.890218, 0.466667, 1, 0.0279461, -0.439475, -0.116585, 0.890218, 0.5, 1, 0.0266918, -0.438615, -0.11515, 0.890867, 0.533333, 1, 0.0229266, -0.436023, -0.11084, 0.892789, 0.566667, 1, 0.0168759, -0.43182, -0.103906, 0.895796, 0.6, 1, 0.00917225, -0.4264, -0.0950643, 0.899478, 0.633333, 1, 0.000857392, -0.420466, -0.0855041, 0.90327, 0.666667, 1, -0.00684813, -0.414887, -0.0766285, 0.906614, 0.7, 1, -0.0129016, -0.410452, -0.0696452, 0.909127, 0.733333, 1, -0.0166691, -0.407668, -0.0652942, 0.91064, 0.766667, 1, -0.0179242, -0.406736, -0.0638439, 0.911136, 0.8, 1, -0.0158456, -0.408278, -0.0662456, 0.910313, 0.833333, 1, -0.00969207, -0.412809, -0.0733489, 0.907807, 0.866667, 1, -0.000308503, -0.419627, -0.0841621, 0.903787, 0.9, 1, 0.010338, -0.427225, -0.0964033, 0.898932, 0.933333, 1, 0.0197187, -0.433801, -0.107165, 0.894396, 0.966667, 1, 0.0258689, -0.43805, -0.114208, 0.891291, 1, 1, 0.0279461, -0.439475, -0.116585, 0.890218)
tracks/7/type = "rotation_3d"
tracks/7/imported = true
tracks/7/enabled = true
tracks/7/path = NodePath("CharacterArmature/Skeleton3D:UpperArm.R")
tracks/7/interp = 1
tracks/7/loop_wrap = true
tracks/7/keys = PackedFloat32Array(0, 1, -0.191369, -0.0442468, 0.626137, 0.754568, 0.0333333, 1, -0.190793, -0.0421601, 0.626883, 0.754214, 0.0666667, 1, -0.189042, -0.0358395, 0.629121, 0.753117, 0.1, 1, -0.186084, -0.0252356, 0.632804, 0.751196, 0.133333, 1, -0.1819, -0.0103833, 0.637814, 0.74833, 0.166667, 1, -0.176493, 0.00855663, 0.64395, 0.744382, 0.2, 1, -0.169911, 0.0312524, 0.650931, 0.739217, 0.233333, 1, -0.162256, 0.0571655, 0.658403, 0.732741, 0.266667, 1, -0.153705, 0.0855366, 0.665973, 0.72494, 0.3, 1, -0.144507, 0.115409, 0.673248, 0.715916, 0.333333, 1, -0.134976, 0.145696, 0.679887, 0.705909, 0.366667, 1, -0.125465, 0.175276, 0.685644, 0.69529, 0.4, 1, -0.116331, 0.203103, 0.690393, 0.684525, 0.433333, 1, -0.107903, 0.228294, 0.694123, 0.674116, 0.466667, 1, -0.100455, 0.250182, 0.696915, 0.664551, 0.5, 1, -0.094193, 0.268322, 0.698907, 0.656247, 0.533333, 1, -0.0892519, 0.282467, 0.700253, 0.649532, 0.566667, 1, -0.085708, 0.292523, 0.701098, 0.644628, 0.6, 1, -0.0835892, 0.2985, 0.701556, 0.641662, 0.633333, 1, -0.0828886, 0.300471, 0.7017, 0.640675, 0.666667, 1, -0.0849886, 0.294556, 0.701258, 0.643624, 0.7, 1, -0.0913279, 0.276542, 0.699711, 0.652371, 0.733333, 1, -0.101726, 0.246471, 0.696471, 0.666207, 0.766667, 1, -0.115531, 0.205514, 0.690773, 0.683556, 0.8, 1, -0.131496, 0.156592, 0.682092, 0.702096, 0.833333, 1, -0.147908, 0.10444, 0.67066, 0.719327, 0.866667, 1, -0.162992, 0.0546953, 0.657714, 0.733386, 0.9, 1, -0.175382, 0.0124167, 0.645166, 0.743537, 0.933333, 1, -0.184335, -0.019005, 0.634927, 0.750018, 0.966667, 1, -0.189638, -0.0379872, 0.628364, 0.753494, 1, 1, -0.191369, -0.0442468, 0.626137, 0.754568)
tracks/8/type = "rotation_3d"
tracks/8/imported = true
tracks/8/enabled = true
tracks/8/path = NodePath("CharacterArmature/Skeleton3D:LowerArm.R")
tracks/8/interp = 1
tracks/8/loop_wrap = true
tracks/8/keys = PackedFloat32Array(0, 1, 0.0279461, 0.439475, 0.116585, 0.890218, 0.0333333, 1, 0.0266918, 0.438615, 0.11515, 0.890867, 0.0666667, 1, 0.0229266, 0.436023, 0.11084, 0.892789, 0.1, 1, 0.0168759, 0.43182, 0.103906, 0.895796, 0.133333, 1, 0.00917224, 0.4264, 0.0950644, 0.899478, 0.166667, 1, 0.000857416, 0.420466, 0.0855041, 0.90327, 0.2, 1, -0.0068481, 0.414887, 0.0766285, 0.906614, 0.233333, 1, -0.0129016, 0.410452, 0.0696452, 0.909127, 0.266667, 1, -0.0166691, 0.407668, 0.0652942, 0.91064, 0.3, 1, -0.0179242, 0.406736, 0.0638439, 0.911136, 0.333333, 1, -0.0170198, 0.407574, 0.0647955, 0.910711, 0.366667, 1, -0.014038, 0.410228, 0.0679874, 0.909337, 0.4, 1, -0.00871919, 0.414707, 0.0738028, 0.906915, 0.433333, 1, -0.00119543, 0.420609, 0.0822259, 0.903508, 0.466667, 1, 0.00793412, 0.427176, 0.0927074, 0.899368, 0.5, 1, 0.0178681, 0.433634, 0.104409, 0.894841, 0.533333, 1, 0.0279461, 0.439475, 0.116585, 0.890218, 0.566667, 1, 0.0399504, 0.445662, 0.131396, 0.884604, 0.6, 1, 0.0557189, 0.453083, 0.151038, 0.876812, 0.633333, 1, 0.074235, 0.461081, 0.174196, 0.86692, 0.666667, 1, 0.0935092, 0.46872, 0.198331, 0.8557, 0.7, 1, 0.110962, 0.475079, 0.220179, 0.844694, 0.733333, 1, 0.124349, 0.479606, 0.236923, 0.835693, 0.766667, 1, 0.132458, 0.482197, 0.247062, 0.830001, 0.8, 1, 0.135092, 0.483012, 0.250355, 0.828113, 0.833333, 1, 0.128604, 0.480812, 0.242339, 0.832798, 0.866667, 1, 0.109564, 0.474023, 0.218748, 0.845841, 0.933333, 1, 0.0540016, 0.451446, 0.149379, 0.878047, 0.966667, 1, 0.0346, 0.442615, 0.124975, 0.887286, 1, 1, 0.0279461, 0.439475, 0.116585, 0.890218)
tracks/9/type = "position_3d"
tracks/9/imported = true
tracks/9/enabled = true
tracks/9/path = NodePath("CharacterArmature/Skeleton3D:Foot.R")
tracks/9/interp = 1
tracks/9/loop_wrap = true
tracks/9/keys = PackedFloat32Array(0, 1, -0.377414, 0.125833, 0.476489, 0.0333333, 1, -0.377414, 0.113801, 0.475404, 0.0666667, 1, -0.377414, 0.0879468, 0.46635, 0.1, 1, -0.377414, 0.0755858, 0.444514, 0.133333, 1, -0.377414, 0.0752093, 0.409423, 0.166667, 1, -0.377414, 0.0749459, 0.358607, 0.2, 1, -0.377413, 0.0747996, 0.29332, 0.233333, 1, -0.377413, 0.0747667, 0.216544, 0.3, 1, -0.377413, 0.0749683, 0.0498324, 0.333333, 1, -0.377413, 0.0751411, -0.026704, 0.366667, 1, -0.377413, 0.0753146, -0.0904527, 0.4, 1, -0.377413, 0.075459, -0.137402, 0.433333, 1, -0.377413, 0.0755536, -0.16563, 0.5, 1, -0.377413, 0.0848302, -0.174654, 0.533333, 1, -0.377414, 0.112173, -0.172838, 0.566667, 1, -0.377415, 0.153823, -0.167276, 0.6, 1, -0.377416, 0.201045, -0.15561, 0.633333, 1, -0.377418, 0.242645, -0.136377, 0.666667, 1, -0.377418, 0.269897, -0.109657, 0.7, 1, -0.377418, 0.27902, -0.0766318, 0.733333, 1, -0.377418, 0.274713, -0.0312815, 0.766667, 1, -0.377418, 0.262054, 0.0328009, 0.8, 1, -0.377417, 0.241813, 0.112631, 0.866667, 1, -0.377416, 0.188404, 0.290724, 0.9, 1, -0.377415, 0.162739, 0.369061, 0.933333, 1, -0.377414, 0.142573, 0.428523, 0.966667, 1, -0.377414, 0.130017, 0.464651, 1, 1, -0.377414, 0.125833, 0.476489)
tracks/10/type = "rotation_3d"
tracks/10/imported = true
tracks/10/enabled = true
tracks/10/path = NodePath("CharacterArmature/Skeleton3D:Foot.R")
tracks/10/interp = 1
tracks/10/loop_wrap = true
tracks/10/keys = PackedFloat32Array(0, 1, 8.27384e-06, -0.874062, -0.485815, 1.44335e-05, 0.0333333, 1, 9.26927e-06, -0.84029, -0.542137, 1.38385e-05, 0.0666667, 1, 1.12598e-05, -0.754101, -0.656759, 1.23746e-05, 0.1, 1, 1.20591e-05, -0.705806, -0.708405, 1.16644e-05, 0.133333, 1, 1.18967e-05, -0.701689, -0.712483, 1.1773e-05, 0.166667, 1, 1.15624e-05, -0.698719, -0.715396, 1.19401e-05, 0.2, 1, 1.1064e-05, -0.696859, -0.717208, 1.21633e-05, 0.233333, 1, 1.04257e-05, -0.695951, -0.718089, 1.24346e-05, 0.333333, 1, 8.18976e-06, -0.695423, -0.718601, 1.33589e-05, 0.366667, 1, 7.55122e-06, -0.694513, -0.71948, 1.36302e-05, 0.4, 1, 7.0524e-06, -0.692642, -0.721282, 1.38534e-05, 0.433333, 1, 6.7175e-06, -0.689634, -0.724158, 1.40199e-05, 0.466667, 1, 6.5538e-06, -0.685426, -0.728143, 1.41268e-05, 0.5, 1, 6.62568e-06, -0.659709, -0.751521, 1.41283e-05, 0.533333, 1, 6.97185e-06, -0.586835, -0.809707, 1.38927e-05, 0.566667, 1, 7.46058e-06, -0.462831, -0.886446, 1.32285e-05, 0.6, 1, 7.86301e-06, -0.307384, -0.951585, 1.20865e-05, 0.633333, 1, 8.04992e-06, -0.166259, -0.986082, 1.08166e-05, 0.666667, 1, 8.09196e-06, -0.0760079, -0.997107, 9.90504e-06, 0.7, 1, 8.10166e-06, -0.0464017, -0.998923, 9.59793e-06, 0.733333, 1, 8.21101e-06, -0.0703141, -0.997525, 9.85815e-06, 0.766667, 1, 8.5243e-06, -0.145285, -0.98939, 1.06399e-05, 0.8, 1, 8.95354e-06, -0.273721, -0.961809, 1.18554e-05, 0.833333, 1, 9.29075e-06, -0.442459, -0.896789, 1.3191e-05, 0.866667, 1, 9.30892e-06, -0.612786, -0.790249, 1.41677e-05, 0.9, 1, 9.0097e-06, -0.743517, -0.668717, 1.45565e-05, 0.933333, 1, 8.61611e-06, -0.823107, -0.567886, 1.45495e-05, 0.966667, 1, 8.32716e-06, -0.862528, -0.506009, 1.44377e-05, 1, 1, 8.27384e-06, -0.874062, -0.485815, 1.44335e-05)
tracks/11/type = "position_3d"
tracks/11/imported = true
tracks/11/enabled = true
tracks/11/path = NodePath("CharacterArmature/Skeleton3D:Face")
tracks/11/interp = 1
tracks/11/loop_wrap = true
tracks/11/keys = PackedFloat32Array(0, 1, 0.00196318, 0.245815, 0.368081)
tracks/12/type = "rotation_3d"
tracks/12/imported = true
tracks/12/enabled = true
tracks/12/path = NodePath("CharacterArmature/Skeleton3D:Face")
tracks/12/interp = 1
tracks/12/loop_wrap = true
tracks/12/keys = PackedFloat32Array(0, 1, -0.129227, 0.0134925, 0.0647749, 0.989405)
tracks/13/type = "position_3d"
tracks/13/imported = true
tracks/13/enabled = true
tracks/13/path = NodePath("CharacterArmature/Skeleton3D:Shoulder.L")
tracks/13/interp = 1
tracks/13/loop_wrap = true
tracks/13/keys = PackedFloat32Array(0, 1, 0.333203, -0.0889084, 0.224692)
tracks/14/type = "rotation_3d"
tracks/14/imported = true
tracks/14/enabled = true
tracks/14/path = NodePath("CharacterArmature/Skeleton3D:Shoulder.L")
tracks/14/interp = 1
tracks/14/loop_wrap = true
tracks/14/keys = PackedFloat32Array(0, 1, -0.111715, 0.0102563, -0.469136, 0.875971)
tracks/15/type = "position_3d"
tracks/15/imported = true
tracks/15/enabled = true
tracks/15/path = NodePath("CharacterArmature/Skeleton3D:Shoulder.R")
tracks/15/interp = 1
tracks/15/loop_wrap = true
tracks/15/keys = PackedFloat32Array(0, 1, -0.332531, -0.0889085, 0.224693)
tracks/16/type = "rotation_3d"
tracks/16/imported = true
tracks/16/enabled = true
tracks/16/path = NodePath("CharacterArmature/Skeleton3D:Shoulder.R")
tracks/16/interp = 1
tracks/16/loop_wrap = true
tracks/16/keys = PackedFloat32Array(0, 1, -0.111714, -0.0102558, 0.469136, 0.875971)
tracks/17/type = "rotation_3d"
tracks/17/imported = true
tracks/17/enabled = true
tracks/17/path = NodePath("CharacterArmature/Skeleton3D:Abdomen")
tracks/17/interp = 1
tracks/17/loop_wrap = true
tracks/17/keys = PackedFloat32Array(0, 1, 0.0360211, 4.37549e-07, 2.22224e-08, 0.999351)
tracks/18/type = "rotation_3d"
tracks/18/imported = true
tracks/18/enabled = true
tracks/18/path = NodePath("CharacterArmature/Skeleton3D:Neck")
tracks/18/interp = 1
tracks/18/loop_wrap = true
tracks/18/keys = PackedFloat32Array(0, 1, 0.193593, -7.51327e-06, 0.00014162, 0.981082)
tracks/19/type = "rotation_3d"
tracks/19/imported = true
tracks/19/enabled = true
tracks/19/path = NodePath("CharacterArmature/Skeleton3D:Head")
tracks/19/interp = 1
tracks/19/loop_wrap = true
tracks/19/keys = PackedFloat32Array(0, 1, -0.157324, -0.000272394, 4.31702e-05, 0.987547)
tracks/20/type = "rotation_3d"
tracks/20/imported = true
tracks/20/enabled = true
tracks/20/path = NodePath("CharacterArmature/Skeleton3D:Pinky3.L")
tracks/20/interp = 1
tracks/20/loop_wrap = true
tracks/20/keys = PackedFloat32Array(0, 1, -0.628727, 0.0689662, -0.140753, 0.761666)
tracks/21/type = "rotation_3d"
tracks/21/imported = true
tracks/21/enabled = true
tracks/21/path = NodePath("CharacterArmature/Skeleton3D:Thumb2.L")
tracks/21/interp = 1
tracks/21/loop_wrap = true
tracks/21/keys = PackedFloat32Array(0, 1, 0.0494149, -0.591702, 0.0222427, 0.804334)
tracks/22/type = "rotation_3d"
tracks/22/imported = true
tracks/22/enabled = true
tracks/22/path = NodePath("CharacterArmature/Skeleton3D:Pinky2.R")
tracks/22/interp = 1
tracks/22/loop_wrap = true
tracks/22/keys = PackedFloat32Array(0, 1, 0.0683286, 0.0838638, 0.0889255, 0.990147)
tracks/23/type = "rotation_3d"
tracks/23/imported = true
tracks/23/enabled = true
tracks/23/path = NodePath("CharacterArmature/Skeleton3D:Pinky3.R")
tracks/23/interp = 1
tracks/23/loop_wrap = true
tracks/23/keys = PackedFloat32Array(0, 1, -0.0443261, 0.0274804, 0.0696913, 0.996204)
tracks/24/type = "rotation_3d"
tracks/24/imported = true
tracks/24/enabled = true
tracks/24/path = NodePath("CharacterArmature/Skeleton3D:Middle2.R")
tracks/24/interp = 1
tracks/24/loop_wrap = true
tracks/24/keys = PackedFloat32Array(0, 1, 0.0287668, -0.958988, -0.0516367, 0.277214)
tracks/25/type = "rotation_3d"
tracks/25/imported = true
tracks/25/enabled = true
tracks/25/path = NodePath("CharacterArmature/Skeleton3D:Middle3.R")
tracks/25/interp = 1
tracks/25/loop_wrap = true
tracks/25/keys = PackedFloat32Array(0, 1, -0.0490525, 0.957024, 0.00343769, 0.285809)
tracks/26/type = "rotation_3d"
tracks/26/imported = true
tracks/26/enabled = true
tracks/26/path = NodePath("CharacterArmature/Skeleton3D:Index2.R")
tracks/26/interp = 1
tracks/26/loop_wrap = true
tracks/26/keys = PackedFloat32Array(0, 1, -0.0360648, 0.173438, -0.171589, 0.969111)
tracks/27/type = "rotation_3d"
tracks/27/imported = true
tracks/27/enabled = true
tracks/27/path = NodePath("CharacterArmature/Skeleton3D:Index3.R")
tracks/27/interp = 1
tracks/27/loop_wrap = true
tracks/27/keys = PackedFloat32Array(0, 1, -0.0977596, -0.00365195, 0.0314475, 0.994706)
tracks/28/type = "rotation_3d"
tracks/28/imported = true
tracks/28/enabled = true
tracks/28/path = NodePath("CharacterArmature/Skeleton3D:Thumb2.R")
tracks/28/interp = 1
tracks/28/loop_wrap = true
tracks/28/keys = PackedFloat32Array(0, 1, 0.0494148, 0.591702, -0.0222427, 0.804334)
tracks/29/type = "rotation_3d"
tracks/29/imported = true
tracks/29/enabled = true
tracks/29/path = NodePath("CharacterArmature/Skeleton3D:Pinky1.L")
tracks/29/interp = 1
tracks/29/loop_wrap = true
tracks/29/keys = PackedFloat32Array(0, 1, -0.0282119, 0.0783474, 0.1892, 0.978401)
tracks/30/type = "rotation_3d"
tracks/30/imported = true
tracks/30/enabled = true
tracks/30/path = NodePath("CharacterArmature/Skeleton3D:Middle1.L")
tracks/30/interp = 1
tracks/30/loop_wrap = true
tracks/30/keys = PackedFloat32Array(0, 1, -0.00104054, 0.00359538, -0.0413494, 0.999138)
tracks/31/type = "rotation_3d"
tracks/31/imported = true
tracks/31/enabled = true
tracks/31/path = NodePath("CharacterArmature/Skeleton3D:Index1.L")
tracks/31/interp = 1
tracks/31/loop_wrap = true
tracks/31/keys = PackedFloat32Array(0, 1, 0.0772995, 0.166877, -0.28043, 0.942091)
tracks/32/type = "rotation_3d"
tracks/32/imported = true
tracks/32/enabled = true
tracks/32/path = NodePath("CharacterArmature/Skeleton3D:Thumb1.L")
tracks/32/interp = 1
tracks/32/loop_wrap = true
tracks/32/keys = PackedFloat32Array(0, 1, 0.221006, 0.549587, -0.472044, 0.652905)
tracks/33/type = "rotation_3d"
tracks/33/imported = true
tracks/33/enabled = true
tracks/33/path = NodePath("CharacterArmature/Skeleton3D:Pinky1.R")
tracks/33/interp = 1
tracks/33/loop_wrap = true
tracks/33/keys = PackedFloat32Array(0, 1, -0.0282119, -0.0783474, -0.1892, 0.978401)
tracks/34/type = "rotation_3d"
tracks/34/imported = true
tracks/34/enabled = true
tracks/34/path = NodePath("CharacterArmature/Skeleton3D:Middle1.R")
tracks/34/interp = 1
tracks/34/loop_wrap = true
tracks/34/keys = PackedFloat32Array(0, 1, -0.00104057, -0.00359537, 0.0413494, 0.999138)
tracks/35/type = "rotation_3d"
tracks/35/imported = true
tracks/35/enabled = true
tracks/35/path = NodePath("CharacterArmature/Skeleton3D:Index1.R")
tracks/35/interp = 1
tracks/35/loop_wrap = true
tracks/35/keys = PackedFloat32Array(0, 1, 0.0772995, -0.166877, 0.28043, 0.942091)
tracks/36/type = "rotation_3d"
tracks/36/imported = true
tracks/36/enabled = true
tracks/36/path = NodePath("CharacterArmature/Skeleton3D:Thumb1.R")
tracks/36/interp = 1
tracks/36/loop_wrap = true
tracks/36/keys = PackedFloat32Array(0, 1, 0.221007, -0.549587, 0.472044, 0.652905)
