[gd_resource type="FontVariation" load_steps=4 format=3 uid="uid://bdt65myu3l155"]

[ext_resource type="FontFile" uid="uid://blievxrmvgp2u" path="res://assets/fonts/IBM-Plex-Sans/IBMPlexSans-BoldItalic.otf" id="1"]
[ext_resource type="FontFile" uid="uid://c71sfle8erqu" path="res://assets/fonts/Liberation-Sans/LiberationSans-BoldItalic.ttf" id="2"]
[ext_resource type="FontFile" uid="uid://baofhbhthvwrb" path="res://assets/fonts/Amiri/Amiri-BoldSlanted.ttf" id="3"]

[resource]
base_font = ExtResource("1")
fallbacks = Array[Font]([ExtResource("2"), ExtResource("3")])
