[gd_resource type="StandardMaterial3D" format=3 uid="uid://civi5skuily58"]

[resource]
resource_name = "trash_green"
cull_mode = 2
albedo_color = Color(0.545098, 0.905882, 0.666667, 1)
roughness = 0.4
