[gd_scene load_steps=6 format=3 uid="uid://dx4v7enp6x202"]

[ext_resource type="Script" path="res://common/scenes/board_logic/controller/duelselection.gd" id="1"]
[ext_resource type="Shader" path="res://assets/shaders/outline.gdshader" id="3"]

[sub_resource type="ShaderMaterial" id="4"]
shader = ExtResource("3")
shader_parameter/width = 10.0
shader_parameter/outline_color = Color(1, 1, 1, 1)
shader_parameter/enable_shader = null

[sub_resource type="ShaderMaterial" id="2"]
shader = ExtResource("3")
shader_parameter/width = 10.0
shader_parameter/outline_color = Color(1, 1, 1, 1)
shader_parameter/enable_shader = false

[sub_resource type="ShaderMaterial" id="3"]
shader = ExtResource("3")
shader_parameter/width = 10.0
shader_parameter/outline_color = Color(1, 1, 1, 1)
shader_parameter/enable_shader = false

[node name="DuelSelection" type="Control"]
visible = false
layout_mode = 3
anchors_preset = 15
anchor_right = 1.0
anchor_bottom = 1.0
grow_horizontal = 2
grow_vertical = 2
script = ExtResource("1")

[node name="Label" type="Label" parent="."]
layout_mode = 1
anchors_preset = 8
anchor_left = 0.5
anchor_top = 0.5
anchor_right = 0.5
anchor_bottom = 0.5
offset_left = -276.5
offset_top = -127.5
offset_right = 276.5
offset_bottom = -42.5
grow_horizontal = 2
grow_vertical = 2
theme_type_variation = &"HeaderLarge"
text = "CONTEXT_LABEL_DUEL_SELECT"
horizontal_alignment = 1

[node name="Player1" type="TextureButton" parent="."]
material = SubResource("4")
layout_mode = 0
anchor_left = 0.5
anchor_top = 0.5
anchor_right = 0.5
anchor_bottom = 0.5
offset_left = -264.0
offset_top = -64.0
offset_right = -136.0
offset_bottom = 64.0
ignore_texture_size = true
stretch_mode = 5

[node name="Player2" type="TextureButton" parent="."]
material = SubResource("2")
layout_mode = 0
anchor_left = 0.5
anchor_top = 0.5
anchor_right = 0.5
anchor_bottom = 0.5
offset_left = -64.0
offset_top = -64.0
offset_right = 64.0
offset_bottom = 64.0
ignore_texture_size = true
stretch_mode = 5

[node name="Player3" type="TextureButton" parent="."]
material = SubResource("3")
layout_mode = 0
anchor_left = 0.5
anchor_top = 0.5
anchor_right = 0.5
anchor_bottom = 0.5
offset_left = 136.0
offset_top = -64.0
offset_right = 264.0
offset_bottom = 64.0
ignore_texture_size = true
stretch_mode = 5
