[gd_scene load_steps=2 format=3 uid="uid://xvv8wkg8ndwf"]

[ext_resource type="Script" path="res://common/scenes/board_logic/controller/selectspacehelper.gd" id="1"]

[node name="SelectSpaceHelper" type="Node3D"]
script = ExtResource("1")
