<?xml version="1.0" encoding="UTF-8" standalone="no"?>
<svg
   xmlns:dc="http://purl.org/dc/elements/1.1/"
   xmlns:cc="http://creativecommons.org/ns#"
   xmlns:rdf="http://www.w3.org/1999/02/22-rdf-syntax-ns#"
   xmlns:svg="http://www.w3.org/2000/svg"
   xmlns="http://www.w3.org/2000/svg"
   xmlns:sodipodi="http://sodipodi.sourceforge.net/DTD/sodipodi-0.dtd"
   xmlns:inkscape="http://www.inkscape.org/namespaces/inkscape"
   width="4.1999998mm"
   height="87.5mm"
   viewBox="0 0 4.2000002 87.5"
   version="1.1"
   id="svg8"
   inkscape:version="1.0.1 (3bc2e813f5, 2020-09-07)"
   sodipodi:docname="Scroll.svg"
   inkscape:export-filename="C:\Users\Admin\Documents\Git\SuperTuxParty\assets\defaults\theme_icons\NotSelected.png"
   inkscape:export-xdpi="200"
   inkscape:export-ydpi="200">
  <defs
     id="defs2" />
  <sodipodi:namedview
     id="base"
     pagecolor="#ffffff"
     bordercolor="#666666"
     borderopacity="1.0"
     inkscape:pageopacity="0"
     inkscape:pageshadow="2"
     inkscape:zoom="3.4892037"
     inkscape:cx="9.4488189"
     inkscape:cy="259.13156"
     inkscape:document-units="mm"
     inkscape:current-layer="g843"
     inkscape:document-rotation="0"
     showgrid="true"
     inkscape:object-paths="false"
     inkscape:snap-bbox="true"
     inkscape:snap-bbox-edge-midpoints="true"
     inkscape:window-width="1550"
     inkscape:window-height="1030"
     inkscape:window-x="194"
     inkscape:window-y="0"
     inkscape:window-maximized="0"
     inkscape:bbox-nodes="false"
     inkscape:bbox-paths="false"
     inkscape:pagecheckerboard="true"
     showborder="true"
     inkscape:snap-grids="true"
     inkscape:snap-bbox-midpoints="false">
    <inkscape:grid
       type="xygrid"
       id="grid855"
       visible="true"
       spacingx="0.13229167"
       spacingy="0.13229167" />
  </sodipodi:namedview>
  <metadata
     id="metadata5">
    <rdf:RDF>
      <cc:Work
         rdf:about="">
        <dc:format>image/svg+xml</dc:format>
        <dc:type
           rdf:resource="http://purl.org/dc/dcmitype/StillImage" />
        <dc:title></dc:title>
      </cc:Work>
    </rdf:RDF>
  </metadata>
  <g
     inkscape:label="Ebene 1"
     inkscape:groupmode="layer"
     id="layer1">
    <g
       id="g843"
       transform="translate(-33.192629,-91.558917)">
      <path
         id="rect832"
         style="fill:#ffffff;stroke:#ffffff;stroke-width:1.8014;stroke-linejoin:round;stroke-opacity:1;paint-order:markers fill stroke"
         d="m 34.754856,92.822597 c -0.03358,4.8e-5 0.597197,0 0.895798,0 v 85.199673 h -0.895798 z"
         sodipodi:nodetypes="ccccc" />
    </g>
  </g>
</svg>
